<?xml version="1.0" encoding="utf-8"?>
<!-- Generator: Adobe Illustrator 25.3.1, SVG Export Plug-In . SVG Version: 6.00 Build 0)  -->
<svg version="1.1" id="Layer_1" xmlns="http://www.w3.org/2000/svg" xmlns:xlink="http://www.w3.org/1999/xlink" x="0px" y="0px"
	 viewBox="0 0 512 512" style="enable-background:new 0 0 512 512;" xml:space="preserve">
<path d="M166.1,445.4L166.1,445.4c-13.5,0-22.5-4.5-31.4-13.5L13.4,301.7c-18-18-18-44.9,0-62.9s44.9-18,62.9,0l89.8,98.8l269.5-256
	c18-18,44.9-18,62.9,0c18,18,18,44.9,0,62.9L193,432C188.5,440.9,175.1,445.4,166.1,445.4z"/>
</svg>
